[{"line":1,"elements":[{"line":3,"name":"Calling","description":"","id":"calling","type":"scenario","keyword":"Scenario","steps":[{"name":"def result = call read('calledFeature.feature')","result":{"duration":1188123600,"status":"passed"},"match":{"location":"karate","arguments":[]},"keyword":"*","line":4},{"name":"\/Work\/GradleWorkspace\/src\/test\/java\/FeatureFiles\/calledFeature.feature","result":{"duration":0,"status":"passed"},"match":{"location":"karate","arguments":[]},"keyword":"","line":4},{"name":"url \"http:\/\/reqres.in\"","result":{"duration":4090300,"status":"passed"},"match":{"location":"karate","arguments":[]},"keyword":"> Given","line":5,"doc_string":{"content_type":"","value":"17:20:52.986 skipping bootstrap configuration: could not find or read file: classpath:karate-config.js","line":5}},{"name":"path \"\/api\/users?page=2\"","result":{"duration":1722100,"status":"passed"},"match":{"location":"karate","arguments":[]},"keyword":"> And","line":6},{"name":"method Get","result":{"duration":939378000,"status":"passed"},"match":{"location":"karate","arguments":[]},"keyword":"> When","line":7,"doc_string":{"content_type":"","value":"17:20:53.601 request:\n1 > GET http:\/\/reqres.in\/api\/users%3Fpage=2\n1 > Accept-Encoding: gzip,deflate\n1 > Connection: Keep-Alive\n1 > Host: reqres.in\n1 > User-Agent: Apache-HttpClient\/4.5.12 (Java\/1.8.0_251)\n\n17:20:53.758 response time in milliseconds: 158.09\n1 < 301\n1 < CF-RAY: 5fb4d539af1a1a42-SIN\n1 < Cache-Control: max-age=3600\n1 < Connection: keep-alive\n1 < Date: Wed, 02 Dec 2020 11:50:53 GMT\n1 < Expires: Wed, 02 Dec 2020 12:50:53 GMT\n1 < Location: https:\/\/reqres.in\/api\/users%3Fpage=2\n1 < NEL: {\"report_to\":\"cf-nel\",\"max_age\":604800}\n1 < Report-To: {\"endpoints\":[{\"url\":\"https:\\\/\\\/a.nel.cloudflare.com\\\/report?s=PwNJEl5pBcXV0f%2Bt4wXIiRaurU%2B0H4lYRoCJIENOdAuSKQtQeQv5eWh7g53LZ1J93FoM2dmb6EDr10hgyXqY0YlxcZD1OhYs56Y%3D\"}],\"group\":\"cf-nel\",\"max_age\":604800}\n1 < Server: cloudflare\n1 < Transfer-Encoding: chunked\n1 < Vary: Accept-Encoding\n1 < cf-request-id: 06c4e3980900001a425c90f000000001\n\n17:20:53.773 request:\n2 > GET http:\/\/reqres.in\/api\/users%3Fpage=2\n2 > Accept-Encoding: gzip,deflate\n2 > Connection: Keep-Alive\n2 > Host: reqres.in\n2 > User-Agent: Apache-HttpClient\/4.5.12 (Java\/1.8.0_251)\n\n17:20:54.117 response time in milliseconds: 352.85\n2 < 200\n2 < Access-Control-Allow-Origin: *\n2 < Age: 4092\n2 < CF-Cache-Status: HIT\n2 < CF-RAY: 5fb4d53c0a5a19e9-SIN\n2 < Cache-Control: max-age=14400\n2 < Connection: keep-alive\n2 < Content-Type: application\/json; charset=utf-8\n2 < Date: Wed, 02 Dec 2020 11:50:54 GMT\n2 < Etag: W\/\"2c1-N6Rqerxquq2kgQhL51EiSg4x0R8\"\n2 < Expect-CT: max-age=604800, report-uri=\"https:\/\/report-uri.cloudflare.com\/cdn-cgi\/beacon\/expect-ct\"\n2 < NEL: {\"report_to\":\"cf-nel\",\"max_age\":604800}\n2 < Report-To: {\"endpoints\":[{\"url\":\"https:\\\/\\\/a.nel.cloudflare.com\\\/report?s=rxl2jLAWyEWgde7BXD2RuRtsf29gkQZSdeTnbsADS1LHvE9VhzPVlVTRCvv6O1IxDyZTMBiM8h2KMi7gb2ptQdgND4iaRlxWB78%3D\"}],\"group\":\"cf-nel\",\"max_age\":604800}\n2 < Server: cloudflare\n2 < Set-Cookie: __cfduid=d7d794fbf453b0788f8dfadfa6022ecb61606909854; expires=Fri, 01-Jan-21 11:50:54 GMT; path=\/; domain=.reqres.in; HttpOnly; SameSite=Lax; Secure\n2 < Transfer-Encoding: chunked\n2 < Vary: Accept-Encoding\n2 < Via: 1.1 vegur\n2 < X-Powered-By: Express\n2 < cf-request-id: 06c4e39984000019e9771b3000000001\n{\"page\":1,\"per_page\":6,\"total\":12,\"total_pages\":2,\"data\":[{\"id\":1,\"name\":\"cerulean\",\"year\":2000,\"color\":\"#98B2D1\",\"pantone_value\":\"15-4020\"},{\"id\":2,\"name\":\"fuchsia rose\",\"year\":2001,\"color\":\"#C74375\",\"pantone_value\":\"17-2031\"},{\"id\":3,\"name\":\"true red\",\"year\":2002,\"color\":\"#BF1932\",\"pantone_value\":\"19-1664\"},{\"id\":4,\"name\":\"aqua sky\",\"year\":2003,\"color\":\"#7BC4C4\",\"pantone_value\":\"14-4811\"},{\"id\":5,\"name\":\"tigerlily\",\"year\":2004,\"color\":\"#E2583E\",\"pantone_value\":\"17-1456\"},{\"id\":6,\"name\":\"blue turquoise\",\"year\":2005,\"color\":\"#53B0AE\",\"pantone_value\":\"15-5217\"}],\"support\":{\"url\":\"https:\/\/reqres.in\/#support-heading\",\"text\":\"To keep ReqRes free, contributions towards server costs are appreciated!\"}}","line":7}},{"name":"status 200","result":{"duration":15900,"status":"passed"},"match":{"location":"karate","arguments":[]},"keyword":"> Then","line":8},{"name":"match response.page == 1","result":{"duration":15414700,"status":"passed"},"match":{"location":"karate","arguments":[]},"keyword":"> And","line":9},{"name":"print result","result":{"duration":1644100,"status":"passed"},"match":{"location":"karate","arguments":[]},"keyword":"*","line":5,"doc_string":{"content_type":"","value":"17:20:54.188 [print] {\n  \"__arg\": null,\n  \"responseType\": \"json\",\n  \"responseHeaders\": {\n    \"Date\": [\n      \"Wed, 02 Dec 2020 11:50:54 GMT\"\n    ],\n    \"Content-Type\": [\n      \"application\/json; charset=utf-8\"\n    ],\n    \"Transfer-Encoding\": [\n      \"chunked\"\n    ],\n    \"Connection\": [\n      \"keep-alive\"\n    ],\n    \"Set-Cookie\": [\n      \"__cfduid=d7d794fbf453b0788f8dfadfa6022ecb61606909854; expires=Fri, 01-Jan-21 11:50:54 GMT; path=\/; domain=.reqres.in; HttpOnly; SameSite=Lax; Secure\"\n    ],\n    \"X-Powered-By\": [\n      \"Express\"\n    ],\n    \"Access-Control-Allow-Origin\": [\n      \"*\"\n    ],\n    \"Etag\": [\n      \"W\/\\\"2c1-N6Rqerxquq2kgQhL51EiSg4x0R8\\\"\"\n    ],\n    \"Via\": [\n      \"1.1 vegur\"\n    ],\n    \"Cache-Control\": [\n      \"max-age=14400\"\n    ],\n    \"CF-Cache-Status\": [\n      \"HIT\"\n    ],\n    \"Age\": [\n      \"4092\"\n    ],\n    \"cf-request-id\": [\n      \"06c4e39984000019e9771b3000000001\"\n    ],\n    \"Expect-CT\": [\n      \"max-age=604800, report-uri=\\\"https:\/\/report-uri.cloudflare.com\/cdn-cgi\/beacon\/expect-ct\\\"\"\n    ],\n    \"Report-To\": [\n      \"{\\\"endpoints\\\":[{\\\"url\\\":\\\"https:\\\\\/\\\\\/a.nel.cloudflare.com\\\\\/report?s=rxl2jLAWyEWgde7BXD2RuRtsf29gkQZSdeTnbsADS1LHvE9VhzPVlVTRCvv6O1IxDyZTMBiM8h2KMi7gb2ptQdgND4iaRlxWB78%3D\\\"}],\\\"group\\\":\\\"cf-nel\\\",\\\"max_age\\\":604800}\"\n    ],\n    \"NEL\": [\n      \"{\\\"report_to\\\":\\\"cf-nel\\\",\\\"max_age\\\":604800}\"\n    ],\n    \"Vary\": [\n      \"Accept-Encoding\"\n    ],\n    \"Server\": [\n      \"cloudflare\"\n    ],\n    \"CF-RAY\": [\n      \"5fb4d53c0a5a19e9-SIN\"\n    ]\n  },\n  \"responseTime\": 353,\n  \"response\": {\n    \"per_page\": 6,\n    \"total\": 12,\n    \"data\": [\n      {\n        \"color\": \"#98B2D1\",\n        \"year\": 2000,\n        \"name\": \"cerulean\",\n        \"id\": 1,\n        \"pantone_value\": \"15-4020\"\n      },\n      {\n        \"color\": \"#C74375\",\n        \"year\": 2001,\n        \"name\": \"fuchsia rose\",\n        \"id\": 2,\n        \"pantone_value\": \"17-2031\"\n      },\n      {\n        \"color\": \"#BF1932\",\n        \"year\": 2002,\n        \"name\": \"true red\",\n        \"id\": 3,\n        \"pantone_value\": \"19-1664\"\n      },\n      {\n        \"color\": \"#7BC4C4\",\n        \"year\": 2003,\n        \"name\": \"aqua sky\",\n        \"id\": 4,\n        \"pantone_value\": \"14-4811\"\n      },\n      {\n        \"color\": \"#E2583E\",\n        \"year\": 2004,\n        \"name\": \"tigerlily\",\n        \"id\": 5,\n        \"pantone_value\": \"17-1456\"\n      },\n      {\n        \"color\": \"#53B0AE\",\n        \"year\": 2005,\n        \"name\": \"blue turquoise\",\n        \"id\": 6,\n        \"pantone_value\": \"15-5217\"\n      }\n    ],\n    \"page\": 1,\n    \"total_pages\": 2,\n    \"support\": {\n      \"text\": \"To keep ReqRes free, contributions towards server costs are appreciated!\",\n      \"url\": \"https:\/\/reqres.in\/#support-heading\"\n    }\n  },\n  \"requestTimeStamp\": 1606909853773,\n  \"responseStatus\": 200,\n  \"__loop\": -1,\n  \"responseCookies\": {\n    \"__cfduid\": {\n      \"name\": \"__cfduid\",\n      \"value\": \"d7d794fbf453b0788f8dfadfa6022ecb61606909854\",\n      \"domain\": \"reqres.in\",\n      \"path\": \"\/\",\n      \"expires\": \"1609501854000\",\n      \"persistent\": \"true\",\n      \"secure\": \"true\"\n    }\n  }\n}","line":5}},{"name":"match result.responseType == 'json'","result":{"duration":1909600,"status":"passed"},"match":{"location":"karate","arguments":[]},"keyword":"*","line":6},{"name":"match result.responseHeaders.Transfer-Encoding[0] == 'chunked'","result":{"duration":2868700,"status":"passed"},"match":{"location":"karate","arguments":[]},"keyword":"*","line":7},{"name":"match result.response.data[0].name == 'cerulean'","result":{"duration":2279900,"status":"passed"},"match":{"location":"karate","arguments":[]},"keyword":"*","line":8}]}],"name":"src\/test\/java\/FeatureFiles\/callingFeature.feature","description":"calling feature","id":"calling-feature","keyword":"Feature","uri":"src\/test\/java\/FeatureFiles\/callingFeature.feature"}]