[{"line":1,"elements":[{"line":11,"name":"url and path test case 2","description":"","id":"url-and-path-test-case-2","type":"scenario","keyword":"Scenario","steps":[{"name":"url \"http:\/\/reqres.in\"","result":{"duration":2308100,"status":"passed"},"match":{"location":"karate","arguments":[]},"keyword":"Given","line":12,"doc_string":{"content_type":"","value":"16:43:51.586 skipping bootstrap configuration: could not find or read file: classpath:karate-config.js","line":12}},{"name":"path \"\/api\/users\"","result":{"duration":1956600,"status":"passed"},"match":{"location":"karate","arguments":[]},"keyword":"And","line":13},{"name":"param page = 2","result":{"duration":3597300,"status":"passed"},"match":{"location":"karate","arguments":[]},"keyword":"And","line":14},{"name":"method Get","result":{"duration":947988100,"status":"passed"},"match":{"location":"karate","arguments":[]},"keyword":"When","line":15,"doc_string":{"content_type":"","value":"16:43:51.977 request:\n1 > GET http:\/\/reqres.in\/api\/users?page=2\n1 > Accept-Encoding: gzip,deflate\n1 > Connection: Keep-Alive\n1 > Host: reqres.in\n1 > User-Agent: Apache-HttpClient\/4.5.12 (Java\/1.8.0_251)\n\n16:43:52.148 response time in milliseconds: 177.41\n1 < 301\n1 < CF-RAY: 5fb49efcabac1750-SIN\n1 < Cache-Control: max-age=3600\n1 < Connection: keep-alive\n1 < Date: Wed, 02 Dec 2020 11:13:52 GMT\n1 < Expires: Wed, 02 Dec 2020 12:13:52 GMT\n1 < Location: https:\/\/reqres.in\/api\/users?page=2\n1 < NEL: {\"report_to\":\"cf-nel\",\"max_age\":604800}\n1 < Report-To: {\"endpoints\":[{\"url\":\"https:\\\/\\\/a.nel.cloudflare.com\\\/report?s=qZIA3id4HR3cs9MsXzFEBmBeahRNFg1KTVow1zKm%2F7%2BwcfXFVif0136KEq4COnmwrD3i6y2jZEA7R7QERfhPwPqQqM2CHnfLZNE%3D\"}],\"group\":\"cf-nel\",\"max_age\":604800}\n1 < Server: cloudflare\n1 < Transfer-Encoding: chunked\n1 < Vary: Accept-Encoding\n1 < cf-request-id: 06c4c1b1e800001750af9a2000000001\n\n16:43:52.164 request:\n2 > GET http:\/\/reqres.in\/api\/users?page=2\n2 > Accept-Encoding: gzip,deflate\n2 > Connection: Keep-Alive\n2 > Host: reqres.in\n2 > User-Agent: Apache-HttpClient\/4.5.12 (Java\/1.8.0_251)\n\n16:43:52.531 response time in milliseconds: 359.30\n2 < 200\n2 < Access-Control-Allow-Origin: *\n2 < Age: 4317\n2 < CF-Cache-Status: HIT\n2 < CF-RAY: 5fb49eff1b3918be-SIN\n2 < Cache-Control: max-age=14400\n2 < Connection: keep-alive\n2 < Content-Type: application\/json; charset=utf-8\n2 < Date: Wed, 02 Dec 2020 11:13:52 GMT\n2 < Etag: W\/\"406-ut0vzoCuidvyMf8arZpMpJ6ZRDw\"\n2 < Expect-CT: max-age=604800, report-uri=\"https:\/\/report-uri.cloudflare.com\/cdn-cgi\/beacon\/expect-ct\"\n2 < NEL: {\"report_to\":\"cf-nel\",\"max_age\":604800}\n2 < Report-To: {\"endpoints\":[{\"url\":\"https:\\\/\\\/a.nel.cloudflare.com\\\/report?s=uSHLiG%2BLnPUShf5W7biBr180czRJoI2qc5r8CJk7SoQilvNRwMp5LDg5%2B7Efe593VguDVzENAFAae%2F18mXL3fNh%2BZhEQ%2BhDpqBc%3D\"}],\"group\":\"cf-nel\",\"max_age\":604800}\n2 < Server: cloudflare\n2 < Set-Cookie: __cfduid=d838dea822b4a8f173c812af61af969ba1606907632; expires=Fri, 01-Jan-21 11:13:52 GMT; path=\/; domain=.reqres.in; HttpOnly; SameSite=Lax; Secure\n2 < Transfer-Encoding: chunked\n2 < Vary: Accept-Encoding\n2 < Via: 1.1 vegur\n2 < X-Powered-By: Express\n2 < cf-request-id: 06c4c1b36c000018be0f210000000001\n{\"page\":2,\"per_page\":6,\"total\":12,\"total_pages\":2,\"data\":[{\"id\":7,\"email\":\"michael.lawson@reqres.in\",\"first_name\":\"Michael\",\"last_name\":\"Lawson\",\"avatar\":\"https:\/\/reqres.in\/img\/faces\/7-image.jpg\"},{\"id\":8,\"email\":\"lindsay.ferguson@reqres.in\",\"first_name\":\"Lindsay\",\"last_name\":\"Ferguson\",\"avatar\":\"https:\/\/reqres.in\/img\/faces\/8-image.jpg\"},{\"id\":9,\"email\":\"tobias.funke@reqres.in\",\"first_name\":\"Tobias\",\"last_name\":\"Funke\",\"avatar\":\"https:\/\/reqres.in\/img\/faces\/9-image.jpg\"},{\"id\":10,\"email\":\"byron.fields@reqres.in\",\"first_name\":\"Byron\",\"last_name\":\"Fields\",\"avatar\":\"https:\/\/reqres.in\/img\/faces\/10-image.jpg\"},{\"id\":11,\"email\":\"george.edwards@reqres.in\",\"first_name\":\"George\",\"last_name\":\"Edwards\",\"avatar\":\"https:\/\/reqres.in\/img\/faces\/11-image.jpg\"},{\"id\":12,\"email\":\"rachel.howell@reqres.in\",\"first_name\":\"Rachel\",\"last_name\":\"Howell\",\"avatar\":\"https:\/\/reqres.in\/img\/faces\/12-image.jpg\"}],\"support\":{\"url\":\"https:\/\/reqres.in\/#support-heading\",\"text\":\"To keep ReqRes free, contributions towards server costs are appreciated!\"}}","line":15}},{"name":"status 200","result":{"duration":10000,"status":"passed"},"match":{"location":"karate","arguments":[]},"keyword":"Then","line":16},{"name":"match response.page == \"##\"","result":{"duration":12801000,"status":"passed"},"match":{"location":"karate","arguments":[]},"keyword":"And","line":17}]}],"name":"src\/test\/java\/FeatureFiles\/karate09.feature","description":"Karate test suite 09\nusing url and path","id":"karate-test-suite-09","keyword":"Feature","uri":"src\/test\/java\/FeatureFiles\/karate09.feature"}]