[{"line":1,"elements":[{"line":14,"name":"DDT testing","description":"","id":"ddt-testing","type":"scenario","keyword":"Scenario Outline","steps":[{"name":"url \"http:\/\/reqres.in\"","result":{"duration":2115800,"status":"passed"},"match":{"location":"karate","arguments":[]},"keyword":"Given","line":6,"doc_string":{"content_type":"","value":"16:51:33.961 skipping bootstrap configuration: could not find or read file: classpath:karate-config.js","line":6}},{"name":"path \"\/api\/users?page=1\"","result":{"duration":12888000,"status":"passed"},"match":{"location":"karate","arguments":[]},"keyword":"And","line":7},{"name":"method Get","result":{"duration":962647500,"status":"passed"},"match":{"location":"karate","arguments":[]},"keyword":"When","line":8,"doc_string":{"content_type":"","value":"16:51:34.347 request:\n1 > GET http:\/\/reqres.in\/api\/users%3Fpage=1\n1 > Accept-Encoding: gzip,deflate\n1 > Connection: Keep-Alive\n1 > Host: reqres.in\n1 > User-Agent: Apache-HttpClient\/4.5.12 (Java\/1.8.0_251)\n\n16:51:34.511 response time in milliseconds: 162.96\n1 < 301\n1 < CF-RAY: 5fb4aa467dbd1972-SIN\n1 < Cache-Control: max-age=3600\n1 < Connection: keep-alive\n1 < Date: Wed, 02 Dec 2020 11:21:34 GMT\n1 < Expires: Wed, 02 Dec 2020 12:21:34 GMT\n1 < Location: https:\/\/reqres.in\/api\/users%3Fpage=1\n1 < NEL: {\"report_to\":\"cf-nel\",\"max_age\":604800}\n1 < Report-To: {\"endpoints\":[{\"url\":\"https:\\\/\\\/a.nel.cloudflare.com\\\/report?s=8y%2BdwpXBtBPwqVhf0IUPKrgNvO3IMyddi2zD5D%2Bj961TI7owt9G5uQXawiGxT929gftt9PodCr%2BI9K00%2FxQUCwgaVqvXKIAVggU%3D\"}],\"group\":\"cf-nel\",\"max_age\":604800}\n1 < Server: cloudflare\n1 < Transfer-Encoding: chunked\n1 < Vary: Accept-Encoding\n1 < cf-request-id: 06c4c8c0090000197237aa6000000001\n\n16:51:34.517 request:\n2 > GET http:\/\/reqres.in\/api\/users%3Fpage=1\n2 > Accept-Encoding: gzip,deflate\n2 > Connection: Keep-Alive\n2 > Host: reqres.in\n2 > User-Agent: Apache-HttpClient\/4.5.12 (Java\/1.8.0_251)\n\n16:51:34.904 response time in milliseconds: 381.46\n2 < 200\n2 < Age: 3\n2 < CF-Cache-Status: HIT\n2 < CF-RAY: 5fb4aa48dff61a76-SIN\n2 < Cache-Control: max-age=14400\n2 < Connection: keep-alive\n2 < Content-Type: application\/json; charset=utf-8\n2 < Date: Wed, 02 Dec 2020 11:21:34 GMT\n2 < Expect-CT: max-age=604800, report-uri=\"https:\/\/report-uri.cloudflare.com\/cdn-cgi\/beacon\/expect-ct\"\n2 < NEL: {\"report_to\":\"cf-nel\",\"max_age\":604800}\n2 < Report-To: {\"endpoints\":[{\"url\":\"https:\\\/\\\/a.nel.cloudflare.com\\\/report?s=gMj6Th3Z8F7xImpgXOxlczCcXujJ%2BNxoB9QyH%2Fv4R1p17Pc12tx%2BDRjVBPhXG2iSgPyzCsB9Q7RqInzGVA8jKJaMPwcwgfMplnI%3D\"}],\"group\":\"cf-nel\",\"max_age\":604800}\n2 < Server: cloudflare\n2 < Set-Cookie: __cfduid=dd5c0d4b4b0b21b42082797dcb35fd90f1606908094; expires=Fri, 01-Jan-21 11:21:34 GMT; path=\/; domain=.reqres.in; HttpOnly; SameSite=Lax; Secure\n2 < Transfer-Encoding: chunked\n2 < Vary: Accept-Encoding\n2 < access-control-allow-origin: *\n2 < cf-request-id: 06c4c8c18900001a76d03c4000000001\n2 < etag: W\/\"2c1-N6Rqerxquq2kgQhL51EiSg4x0R8\"\n2 < via: 1.1 vegur\n2 < x-powered-by: Express\n{\"page\":1,\"per_page\":6,\"total\":12,\"total_pages\":2,\"data\":[{\"id\":1,\"name\":\"cerulean\",\"year\":2000,\"color\":\"#98B2D1\",\"pantone_value\":\"15-4020\"},{\"id\":2,\"name\":\"fuchsia rose\",\"year\":2001,\"color\":\"#C74375\",\"pantone_value\":\"17-2031\"},{\"id\":3,\"name\":\"true red\",\"year\":2002,\"color\":\"#BF1932\",\"pantone_value\":\"19-1664\"},{\"id\":4,\"name\":\"aqua sky\",\"year\":2003,\"color\":\"#7BC4C4\",\"pantone_value\":\"14-4811\"},{\"id\":5,\"name\":\"tigerlily\",\"year\":2004,\"color\":\"#E2583E\",\"pantone_value\":\"17-1456\"},{\"id\":6,\"name\":\"blue turquoise\",\"year\":2005,\"color\":\"#53B0AE\",\"pantone_value\":\"15-5217\"}],\"support\":{\"url\":\"https:\/\/reqres.in\/#support-heading\",\"text\":\"To keep ReqRes free, contributions towards server costs are appreciated!\"}}","line":8}},{"name":"status 200","result":{"duration":11300,"status":"passed"},"match":{"location":"karate","arguments":[]},"keyword":"Then","line":9},{"name":"match response.page == 1","result":{"duration":12670700,"status":"passed"},"match":{"location":"karate","arguments":[]},"keyword":"And","line":10}],"tags":[{"name":"@DDT","line":4}]},{"line":15,"name":"DDT testing","description":"","id":"ddt-testing","type":"scenario","keyword":"Scenario Outline","steps":[{"name":"url \"http:\/\/reqres.in\"","result":{"duration":168400,"status":"passed"},"match":{"location":"karate","arguments":[]},"keyword":"Given","line":6,"doc_string":{"content_type":"","value":"16:51:34.985 skipping bootstrap configuration: could not find or read file: classpath:karate-config.js","line":6}},{"name":"path \"\/api\/users?page=2\"","result":{"duration":1715600,"status":"passed"},"match":{"location":"karate","arguments":[]},"keyword":"And","line":7},{"name":"method Get","result":{"duration":289883400,"status":"passed"},"match":{"location":"karate","arguments":[]},"keyword":"When","line":8,"doc_string":{"content_type":"","value":"16:51:34.995 request:\n1 > GET http:\/\/reqres.in\/api\/users%3Fpage=2\n1 > Accept-Encoding: gzip,deflate\n1 > Connection: Keep-Alive\n1 > Host: reqres.in\n1 > User-Agent: Apache-HttpClient\/4.5.12 (Java\/1.8.0_251)\n\n16:51:35.104 response time in milliseconds: 108.14\n1 < 301\n1 < CF-RAY: 5fb4aa4a48551a72-SIN\n1 < Cache-Control: max-age=3600\n1 < Connection: keep-alive\n1 < Date: Wed, 02 Dec 2020 11:21:35 GMT\n1 < Expires: Wed, 02 Dec 2020 12:21:35 GMT\n1 < Location: https:\/\/reqres.in\/api\/users%3Fpage=2\n1 < NEL: {\"report_to\":\"cf-nel\",\"max_age\":604800}\n1 < Report-To: {\"endpoints\":[{\"url\":\"https:\\\/\\\/a.nel.cloudflare.com\\\/report?s=ABmevRz6oG4nom0QZDREaOiFAAY09E0hmbfdP7EcTq0qG6wUheoR%2BGfzum0jlTjgeTKtiVZm5cio6gGdEKP13NZRoxtRd%2FxQKNI%3D\"}],\"group\":\"cf-nel\",\"max_age\":604800}\n1 < Server: cloudflare\n1 < Transfer-Encoding: chunked\n1 < Vary: Accept-Encoding\n1 < cf-request-id: 06c4c8c26d00001a7233bcc000000001\n\n16:51:35.106 request:\n2 > GET http:\/\/reqres.in\/api\/users%3Fpage=2\n2 > Accept-Encoding: gzip,deflate\n2 > Connection: Keep-Alive\n2 > Host: reqres.in\n2 > User-Agent: Apache-HttpClient\/4.5.12 (Java\/1.8.0_251)\n\n16:51:35.274 response time in milliseconds: 175.67\n2 < 200\n2 < Access-Control-Allow-Origin: *\n2 < Age: 2333\n2 < CF-Cache-Status: HIT\n2 < CF-RAY: 5fb4aa4b5ec2e25f-SIN\n2 < Cache-Control: max-age=14400\n2 < Connection: keep-alive\n2 < Content-Type: application\/json; charset=utf-8\n2 < Date: Wed, 02 Dec 2020 11:21:35 GMT\n2 < Etag: W\/\"2c1-N6Rqerxquq2kgQhL51EiSg4x0R8\"\n2 < Expect-CT: max-age=604800, report-uri=\"https:\/\/report-uri.cloudflare.com\/cdn-cgi\/beacon\/expect-ct\"\n2 < NEL: {\"report_to\":\"cf-nel\",\"max_age\":604800}\n2 < Report-To: {\"endpoints\":[{\"url\":\"https:\\\/\\\/a.nel.cloudflare.com\\\/report?s=E7xD3QD2zOigvDSoxLoiLMjeAljpsaUeRSJQ3T%2BxQEiUDHh%2B%2BulzREHxHT2RtUveO7uPNcO0wX9VXRii%2FR3D8QouXZ8j4T8pMXw%3D\"}],\"group\":\"cf-nel\",\"max_age\":604800}\n2 < Server: cloudflare\n2 < Set-Cookie: __cfduid=d6de05e1c517d0d709c05010a92bb4b631606908095; expires=Fri, 01-Jan-21 11:21:35 GMT; path=\/; domain=.reqres.in; HttpOnly; SameSite=Lax; Secure\n2 < Transfer-Encoding: chunked\n2 < Vary: Accept-Encoding\n2 < Via: 1.1 vegur\n2 < X-Powered-By: Express\n2 < cf-request-id: 06c4c8c3180000e25fca3a2000000001\n{\"page\":1,\"per_page\":6,\"total\":12,\"total_pages\":2,\"data\":[{\"id\":1,\"name\":\"cerulean\",\"year\":2000,\"color\":\"#98B2D1\",\"pantone_value\":\"15-4020\"},{\"id\":2,\"name\":\"fuchsia rose\",\"year\":2001,\"color\":\"#C74375\",\"pantone_value\":\"17-2031\"},{\"id\":3,\"name\":\"true red\",\"year\":2002,\"color\":\"#BF1932\",\"pantone_value\":\"19-1664\"},{\"id\":4,\"name\":\"aqua sky\",\"year\":2003,\"color\":\"#7BC4C4\",\"pantone_value\":\"14-4811\"},{\"id\":5,\"name\":\"tigerlily\",\"year\":2004,\"color\":\"#E2583E\",\"pantone_value\":\"17-1456\"},{\"id\":6,\"name\":\"blue turquoise\",\"year\":2005,\"color\":\"#53B0AE\",\"pantone_value\":\"15-5217\"}],\"support\":{\"url\":\"https:\/\/reqres.in\/#support-heading\",\"text\":\"To keep ReqRes free, contributions towards server costs are appreciated!\"}}","line":8}},{"name":"status 200","result":{"duration":7700,"status":"passed"},"match":{"location":"karate","arguments":[]},"keyword":"Then","line":9},{"name":"match response.page == 1","result":{"duration":339500,"status":"passed"},"match":{"location":"karate","arguments":[]},"keyword":"And","line":10}],"tags":[{"name":"@DDT","line":4}]},{"line":16,"name":"DDT testing","description":"","id":"ddt-testing","type":"scenario","keyword":"Scenario Outline","steps":[{"name":"url \"http:\/\/reqres.in\"","result":{"duration":128800,"status":"passed"},"match":{"location":"karate","arguments":[]},"keyword":"Given","line":6,"doc_string":{"content_type":"","value":"16:51:35.289 skipping bootstrap configuration: could not find or read file: classpath:karate-config.js","line":6}},{"name":"path \"\/api\/users?page=3\"","result":{"duration":1670500,"status":"passed"},"match":{"location":"karate","arguments":[]},"keyword":"And","line":7},{"name":"method Get","result":{"duration":264471000,"status":"passed"},"match":{"location":"karate","arguments":[]},"keyword":"When","line":8,"doc_string":{"content_type":"","value":"16:51:35.289 request:\n1 > GET http:\/\/reqres.in\/api\/users%3Fpage=3\n1 > Accept-Encoding: gzip,deflate\n1 > Connection: Keep-Alive\n1 > Host: reqres.in\n1 > User-Agent: Apache-HttpClient\/4.5.12 (Java\/1.8.0_251)\n\n16:51:35.383 response time in milliseconds: 104.87\n1 < 301\n1 < CF-RAY: 5fb4aa4c2d8d1a22-SIN\n1 < Cache-Control: max-age=3600\n1 < Connection: keep-alive\n1 < Date: Wed, 02 Dec 2020 11:21:35 GMT\n1 < Expires: Wed, 02 Dec 2020 12:21:35 GMT\n1 < Location: https:\/\/reqres.in\/api\/users%3Fpage=3\n1 < NEL: {\"report_to\":\"cf-nel\",\"max_age\":604800}\n1 < Report-To: {\"endpoints\":[{\"url\":\"https:\\\/\\\/a.nel.cloudflare.com\\\/report?s=qKglGKR%2FrXb%2BQfaSa6xHvV%2F1%2Fj2xkp5zBbcRxSwnWVAp4b2%2FR3xe37I17xjQyyop0SwBbXUJe1Go2wBSNL8mMb45a7lO21VvZWU%3D\"}],\"group\":\"cf-nel\",\"max_age\":604800}\n1 < Server: cloudflare\n1 < Transfer-Encoding: chunked\n1 < Vary: Accept-Encoding\n1 < cf-request-id: 06c4c8c39700001a222300d000000001\n\n16:51:35.399 request:\n2 > GET http:\/\/reqres.in\/api\/users%3Fpage=3\n2 > Accept-Encoding: gzip,deflate\n2 > Connection: Keep-Alive\n2 > Host: reqres.in\n2 > User-Agent: Apache-HttpClient\/4.5.12 (Java\/1.8.0_251)\n\n16:51:35.555 response time in milliseconds: 153.32\n2 < 200\n2 < Access-Control-Allow-Origin: *\n2 < Age: 929\n2 < CF-Cache-Status: HIT\n2 < CF-RAY: 5fb4aa4d2bf71a76-SIN\n2 < Cache-Control: max-age=14400\n2 < Connection: keep-alive\n2 < Content-Type: application\/json; charset=utf-8\n2 < Date: Wed, 02 Dec 2020 11:21:35 GMT\n2 < Etag: W\/\"2c1-N6Rqerxquq2kgQhL51EiSg4x0R8\"\n2 < Expect-CT: max-age=604800, report-uri=\"https:\/\/report-uri.cloudflare.com\/cdn-cgi\/beacon\/expect-ct\"\n2 < NEL: {\"report_to\":\"cf-nel\",\"max_age\":604800}\n2 < Report-To: {\"endpoints\":[{\"url\":\"https:\\\/\\\/a.nel.cloudflare.com\\\/report?s=L7e7GAJ5hZZNATN%2Fb3U0h4RsnQKPNRyIZ0iHyyDsM4EqBQBOApFNoY1KALrTOUQ2YAwTz8eN5JE%2B3059OeqdUXT%2FMo8HDPeaeyA%3D\"}],\"group\":\"cf-nel\",\"max_age\":604800}\n2 < Server: cloudflare\n2 < Set-Cookie: __cfduid=de34d5f7cf2c2f2a86dcdfadcba55ec681606908095; expires=Fri, 01-Jan-21 11:21:35 GMT; path=\/; domain=.reqres.in; HttpOnly; SameSite=Lax; Secure\n2 < Transfer-Encoding: chunked\n2 < Vary: Accept-Encoding\n2 < Via: 1.1 vegur\n2 < X-Powered-By: Express\n2 < cf-request-id: 06c4c8c43900001a76c9330000000001\n{\"page\":1,\"per_page\":6,\"total\":12,\"total_pages\":2,\"data\":[{\"id\":1,\"name\":\"cerulean\",\"year\":2000,\"color\":\"#98B2D1\",\"pantone_value\":\"15-4020\"},{\"id\":2,\"name\":\"fuchsia rose\",\"year\":2001,\"color\":\"#C74375\",\"pantone_value\":\"17-2031\"},{\"id\":3,\"name\":\"true red\",\"year\":2002,\"color\":\"#BF1932\",\"pantone_value\":\"19-1664\"},{\"id\":4,\"name\":\"aqua sky\",\"year\":2003,\"color\":\"#7BC4C4\",\"pantone_value\":\"14-4811\"},{\"id\":5,\"name\":\"tigerlily\",\"year\":2004,\"color\":\"#E2583E\",\"pantone_value\":\"17-1456\"},{\"id\":6,\"name\":\"blue turquoise\",\"year\":2005,\"color\":\"#53B0AE\",\"pantone_value\":\"15-5217\"}],\"support\":{\"url\":\"https:\/\/reqres.in\/#support-heading\",\"text\":\"To keep ReqRes free, contributions towards server costs are appreciated!\"}}","line":8}},{"name":"status 200","result":{"duration":14300,"status":"passed"},"match":{"location":"karate","arguments":[]},"keyword":"Then","line":9},{"name":"match response.page == 1","result":{"duration":516700,"status":"passed"},"match":{"location":"karate","arguments":[]},"keyword":"And","line":10}],"tags":[{"name":"@DDT","line":4}]},{"line":17,"name":"DDT testing","description":"","id":"ddt-testing","type":"scenario","keyword":"Scenario Outline","steps":[{"name":"url \"http:\/\/reqres.in\"","result":{"duration":221500,"status":"passed"},"match":{"location":"karate","arguments":[]},"keyword":"Given","line":6,"doc_string":{"content_type":"","value":"16:51:35.555 skipping bootstrap configuration: could not find or read file: classpath:karate-config.js","line":6}},{"name":"path \"\/api\/users?page=4\"","result":{"duration":2434000,"status":"passed"},"match":{"location":"karate","arguments":[]},"keyword":"And","line":7},{"name":"method Get","result":{"duration":274985000,"status":"passed"},"match":{"location":"karate","arguments":[]},"keyword":"When","line":8,"doc_string":{"content_type":"","value":"16:51:35.555 request:\n1 > GET http:\/\/reqres.in\/api\/users%3Fpage=4\n1 > Accept-Encoding: gzip,deflate\n1 > Connection: Keep-Alive\n1 > Host: reqres.in\n1 > User-Agent: Apache-HttpClient\/4.5.12 (Java\/1.8.0_251)\n\n16:51:35.680 response time in milliseconds: 116.83\n1 < 301\n1 < CF-RAY: 5fb4aa4dddc6a922-SIN\n1 < Cache-Control: max-age=3600\n1 < Connection: keep-alive\n1 < Date: Wed, 02 Dec 2020 11:21:35 GMT\n1 < Expires: Wed, 02 Dec 2020 12:21:35 GMT\n1 < Location: https:\/\/reqres.in\/api\/users%3Fpage=4\n1 < NEL: {\"report_to\":\"cf-nel\",\"max_age\":604800}\n1 < Report-To: {\"endpoints\":[{\"url\":\"https:\\\/\\\/a.nel.cloudflare.com\\\/report?s=Y9q9PGoFnjIiUR0urqArTcrnr1W9SwiR%2BgR4MhbMBNXBEMBaW0nRhug0iDFNevUmNJIGLmMPJ2tDh9OPL%2FXlVsvd3ElvLVRlsG0%3D\"}],\"group\":\"cf-nel\",\"max_age\":604800}\n1 < Server: cloudflare\n1 < Transfer-Encoding: chunked\n1 < Vary: Accept-Encoding\n1 < cf-request-id: 06c4c8c4ad0000a922da8bd000000001\n\n16:51:35.680 request:\n2 > GET http:\/\/reqres.in\/api\/users%3Fpage=4\n2 > Accept-Encoding: gzip,deflate\n2 > Connection: Keep-Alive\n2 > Host: reqres.in\n2 > User-Agent: Apache-HttpClient\/4.5.12 (Java\/1.8.0_251)\n\n16:51:35.836 response time in milliseconds: 153.32\n2 < 200\n2 < Access-Control-Allow-Origin: *\n2 < Age: 3\n2 < CF-Cache-Status: HIT\n2 < CF-RAY: 5fb4aa4eee6be25b-SIN\n2 < Cache-Control: max-age=14400\n2 < Connection: keep-alive\n2 < Content-Type: application\/json; charset=utf-8\n2 < Date: Wed, 02 Dec 2020 11:21:35 GMT\n2 < Etag: W\/\"2c1-N6Rqerxquq2kgQhL51EiSg4x0R8\"\n2 < Expect-CT: max-age=604800, report-uri=\"https:\/\/report-uri.cloudflare.com\/cdn-cgi\/beacon\/expect-ct\"\n2 < NEL: {\"report_to\":\"cf-nel\",\"max_age\":604800}\n2 < Report-To: {\"endpoints\":[{\"url\":\"https:\\\/\\\/a.nel.cloudflare.com\\\/report?s=odPev7EChpOa9yV5oiSn4drsonJoZtg%2FljuXRfAC1SVOiQWxVXkwxX86SJ%2BVf8zsEeWjvUj583u3ncPfkwqcpyrbKGEUIU84h9Q%3D\"}],\"group\":\"cf-nel\",\"max_age\":604800}\n2 < Server: cloudflare\n2 < Set-Cookie: __cfduid=d65c1cc2949390e9566a83cad583ee6891606908095; expires=Fri, 01-Jan-21 11:21:35 GMT; path=\/; domain=.reqres.in; HttpOnly; SameSite=Lax; Secure\n2 < Transfer-Encoding: chunked\n2 < Vary: Accept-Encoding\n2 < Via: 1.1 vegur\n2 < X-Powered-By: Express\n2 < cf-request-id: 06c4c8c5550000e25bc81f5000000001\n{\"page\":1,\"per_page\":6,\"total\":12,\"total_pages\":2,\"data\":[{\"id\":1,\"name\":\"cerulean\",\"year\":2000,\"color\":\"#98B2D1\",\"pantone_value\":\"15-4020\"},{\"id\":2,\"name\":\"fuchsia rose\",\"year\":2001,\"color\":\"#C74375\",\"pantone_value\":\"17-2031\"},{\"id\":3,\"name\":\"true red\",\"year\":2002,\"color\":\"#BF1932\",\"pantone_value\":\"19-1664\"},{\"id\":4,\"name\":\"aqua sky\",\"year\":2003,\"color\":\"#7BC4C4\",\"pantone_value\":\"14-4811\"},{\"id\":5,\"name\":\"tigerlily\",\"year\":2004,\"color\":\"#E2583E\",\"pantone_value\":\"17-1456\"},{\"id\":6,\"name\":\"blue turquoise\",\"year\":2005,\"color\":\"#53B0AE\",\"pantone_value\":\"15-5217\"}],\"support\":{\"url\":\"https:\/\/reqres.in\/#support-heading\",\"text\":\"To keep ReqRes free, contributions towards server costs are appreciated!\"}}","line":8}},{"name":"status 200","result":{"duration":7900,"status":"passed"},"match":{"location":"karate","arguments":[]},"keyword":"Then","line":9},{"name":"match response.page == 1","result":{"duration":257800,"status":"passed"},"match":{"location":"karate","arguments":[]},"keyword":"And","line":10}],"tags":[{"name":"@DDT","line":4}]},{"line":18,"name":"DDT testing","description":"","id":"ddt-testing","type":"scenario","keyword":"Scenario Outline","steps":[{"name":"url \"http:\/\/reqres.in\"","result":{"duration":135100,"status":"passed"},"match":{"location":"karate","arguments":[]},"keyword":"Given","line":6,"doc_string":{"content_type":"","value":"16:51:35.836 skipping bootstrap configuration: could not find or read file: classpath:karate-config.js","line":6}},{"name":"path \"\/api\/users?page=5\"","result":{"duration":1878400,"status":"passed"},"match":{"location":"karate","arguments":[]},"keyword":"And","line":7},{"name":"method Get","result":{"duration":263648600,"status":"passed"},"match":{"location":"karate","arguments":[]},"keyword":"When","line":8,"doc_string":{"content_type":"","value":"16:51:35.836 request:\n1 > GET http:\/\/reqres.in\/api\/users%3Fpage=5\n1 > Accept-Encoding: gzip,deflate\n1 > Connection: Keep-Alive\n1 > Host: reqres.in\n1 > User-Agent: Apache-HttpClient\/4.5.12 (Java\/1.8.0_251)\n\n16:51:35.945 response time in milliseconds: 96.14\n1 < 301\n1 < CF-RAY: 5fb4aa4f9ff3e25b-SIN\n1 < Cache-Control: max-age=3600\n1 < Connection: keep-alive\n1 < Date: Wed, 02 Dec 2020 11:21:35 GMT\n1 < Expires: Wed, 02 Dec 2020 12:21:35 GMT\n1 < Location: https:\/\/reqres.in\/api\/users%3Fpage=5\n1 < NEL: {\"report_to\":\"cf-nel\",\"max_age\":604800}\n1 < Report-To: {\"endpoints\":[{\"url\":\"https:\\\/\\\/a.nel.cloudflare.com\\\/report?s=q58RzcXUV1MSz4UKNbzEh%2Fhv9EcK5C8zOE%2B7LN7Tk0c5m7O%2B6V44P3y9s0v5SzU1AfSVWVg24v%2FGvDYx6pW2anHIMSMJcTG3zxk%3D\"}],\"group\":\"cf-nel\",\"max_age\":604800}\n1 < Server: cloudflare\n1 < Transfer-Encoding: chunked\n1 < Vary: Accept-Encoding\n1 < cf-request-id: 06c4c8c5c40000e25bfd30d000000001\n\n16:51:35.945 request:\n2 > GET http:\/\/reqres.in\/api\/users%3Fpage=5\n2 > Accept-Encoding: gzip,deflate\n2 > Connection: Keep-Alive\n2 > Host: reqres.in\n2 > User-Agent: Apache-HttpClient\/4.5.12 (Java\/1.8.0_251)\n\n16:51:36.102 response time in milliseconds: 162.98\n2 < 200\n2 < Access-Control-Allow-Origin: *\n2 < Age: 3\n2 < CF-Cache-Status: HIT\n2 < CF-RAY: 5fb4aa509db117a3-SIN\n2 < Cache-Control: max-age=14400\n2 < Connection: keep-alive\n2 < Content-Type: application\/json; charset=utf-8\n2 < Date: Wed, 02 Dec 2020 11:21:36 GMT\n2 < Etag: W\/\"2c1-N6Rqerxquq2kgQhL51EiSg4x0R8\"\n2 < Expect-CT: max-age=604800, report-uri=\"https:\/\/report-uri.cloudflare.com\/cdn-cgi\/beacon\/expect-ct\"\n2 < NEL: {\"report_to\":\"cf-nel\",\"max_age\":604800}\n2 < Report-To: {\"endpoints\":[{\"url\":\"https:\\\/\\\/a.nel.cloudflare.com\\\/report?s=qJjVeI5AHNG0IT4%2FHM2OVoD9hY2Z5%2BrWkdchtgsZmDynoIuaAJ9yzuYKC7rvl%2FMsP3K%2BZacNf6gespj27HOEvBxNL9xHkt6e1SQ%3D\"}],\"group\":\"cf-nel\",\"max_age\":604800}\n2 < Server: cloudflare\n2 < Set-Cookie: __cfduid=d86620dd73e966f3bf1db268163c84f7b1606908096; expires=Fri, 01-Jan-21 11:21:36 GMT; path=\/; domain=.reqres.in; HttpOnly; SameSite=Lax; Secure\n2 < Transfer-Encoding: chunked\n2 < Vary: Accept-Encoding\n2 < Via: 1.1 vegur\n2 < X-Powered-By: Express\n2 < cf-request-id: 06c4c8c65f000017a3689c7000000001\n{\"page\":1,\"per_page\":6,\"total\":12,\"total_pages\":2,\"data\":[{\"id\":1,\"name\":\"cerulean\",\"year\":2000,\"color\":\"#98B2D1\",\"pantone_value\":\"15-4020\"},{\"id\":2,\"name\":\"fuchsia rose\",\"year\":2001,\"color\":\"#C74375\",\"pantone_value\":\"17-2031\"},{\"id\":3,\"name\":\"true red\",\"year\":2002,\"color\":\"#BF1932\",\"pantone_value\":\"19-1664\"},{\"id\":4,\"name\":\"aqua sky\",\"year\":2003,\"color\":\"#7BC4C4\",\"pantone_value\":\"14-4811\"},{\"id\":5,\"name\":\"tigerlily\",\"year\":2004,\"color\":\"#E2583E\",\"pantone_value\":\"17-1456\"},{\"id\":6,\"name\":\"blue turquoise\",\"year\":2005,\"color\":\"#53B0AE\",\"pantone_value\":\"15-5217\"}],\"support\":{\"url\":\"https:\/\/reqres.in\/#support-heading\",\"text\":\"To keep ReqRes free, contributions towards server costs are appreciated!\"}}","line":8}},{"name":"status 200","result":{"duration":7800,"status":"passed"},"match":{"location":"karate","arguments":[]},"keyword":"Then","line":9},{"name":"match response.page == 1","result":{"duration":251500,"status":"passed"},"match":{"location":"karate","arguments":[]},"keyword":"And","line":10}],"tags":[{"name":"@DDT","line":4}]}],"name":"src\/test\/java\/FeatureFiles\/karate10.feature","description":"Karate test suite\ndata driven testing","id":"karate-test-suite","keyword":"Feature","uri":"src\/test\/java\/FeatureFiles\/karate10.feature"}]